{
  "group": "justenoughcrowns",
  "type": "minecraft:crafting_shapeless",
  "ingredients": [
    {
      "item": "justenoughcrowns:silveringot"
    }
  ],
  "result": {
    "item": "justenoughcrowns:silvernugget",
    "count": 9
  }
}