{
  "group": "justenoughcrowns",
  "type": "minecraft:crafting_shaped",
  "pattern": [
    "0 2",
    "345"
  ],
  "key": {
    "0": {
      "item": "minecraft:iron_nugget"
    },
    "2": {
      "item": "minecraft:iron_nugget"
    },
    "3": {
      "item": "minecraft:iron_ingot"
    },
    "4": {
      "item": "minecraft:iron_ingot"
    },
    "5": {
      "item": "minecraft:iron_ingot"
    }
  },
  "result": {
    "item": "justenoughcrowns:ironcrownhelmet",
    "count": 1
  }
}